@startuml

skinparam maxMessageSize 200

Truck_APP -> DT_MillGate: Send request with LogLoadingUnit: (fml40::AcceptsLogLoadingUnit/accept)

DT_MillGate -> DT_MillGate: visual checking

DT_MillGate -> Truck_APP: Send response: accepted

DT_MillGate -> DT_MillGate: extract reference and contract number

DT_MillGate -> DummyVATO: tellVatoToCreateIncomingDelivery(ExternalReferenceNumber, ContractNumber)

DummyVATO -> DummyVATO: create a new delivery

DummyVATO -> DT_MillGate: VatoReceiptNumber

DT_MillGate -> DT_Laboratory: request to measure moisture value

DT_Laboratory -> DT_MillGate: moisture value

DT_MillGate -> DummyVATO: updateDeliveryWithMoisture(VatoReceiptNumber, Moisture)

DT_MillGate -> DT_Scale: request to full weight

DT_Scale -> DT_MillGate: full weight

DT_MillGate -> DummyVATO: updateDeliveryWithFullWeight(VatoReceiptNumber, fullWeight)

DT_MillGate -> Truck_APP: Send request to unload log loading unit (fml40::UnloadsLogLoadingUnit/unload)

Truck_APP -> Truck_APP: waiting for physical unloading

Truck_APP -> DT_MillGate: Send response: unload finished (fml40::UnloadsLogLoadingUnit/unload)

DT_MillGate -> DT_Scale: request to empty weight

DT_Scale -> DT_MillGate: empty weight

DT_MillGate -> DummyVATO: updateDeliveryWithEmptyWeight(VatoReceiptNumber, emptyWeight)

DT_MillGate -> DT_MillGate: Calculate Tonne lutro/atro

DT_MillGate -> DummyVATO: updateDeliveryWithLutroWeight(VatoReceiptNumber, lutro)

DT_MillGate -> DummyVATO: updateDeliveryWithAtroWeight(VatoReceiptNumber, atro)

DT_MillGate -> DummyVATO: closeDelivery(VatoReceiptNumber)

DummyVATO -> DummyVATO: delivery closed

DT_MillGate -> DT_LogLoadingUnit: Write measure result (Set value request)

DT_MillGate -> DT_ProductionTeam: Delivery confirmation (with to/atro)

DT_MillGate -> Truck_APP: Delivery confirmation via S3I Event

Truck_APP -> Truck_APP: store the delivery confirmation

DT_MillGate -> DT_VirtualWoodYard: send LogLoadingUnit (fml40::sendLogLoadingUnitToWoodYard)

DT_VirtualWoodYard -> DT_MillGate: current id of storage boxes in the wood yard

DT_MillGate -> DummyVATO: updateDeliveryWithLocationInWoodYard(VatoReceiptNumber)

DT_VirtualWoodYard -> DT_ForestOwner: Send event: current status

DT_VirtualWoodYard -> DT_ForestOwner: Send event: needs in the long term

DT_VirtualWoodYard -> DT_ForestOwner: Send event: needs in the short term

@enduml
