{
  "$schema": "http://json-schema.org/draft-07/schema#",
  "type": "object",
  "description": "This is a json schema for a s3i-b service reply to confirm the acceptance of the partial work order for forwarder",
  "required": ["sender", "receivers", "identifier","messageType", "serviceType", "replyingToMessage", "results"],
  "properties": {
    "sender": {
      "type": "string",
      "description": "s3i id of the forwarder"
    },
    "identifier": {
      "type": "string",
      "description": "id of the message"
    },
    "receivers": {
      "type": "array",
      "item": {
        "type": "string",
        "description": "s3i id of the receiver - the production team"
      }
    },
    "messageType": {
      "const": "serviceReply"
    },
    "serviceType": {
      "const": "fml40::AcceptsForwardingJobs/accept"
    },
    "replyingToMessage": {
      "type": "string",
      "description": "identifier of the corresponding service request"
    },
    "results": {
      "type": "object",
      "required": ["ok"],
      "properties": {
        "ok": {
          "type": "boolean"
        }
      }
    }
  }
}