{
	"$schema": "http://json-schema.org/draft-07/schema#",
	"type": "object",
	"description": "an s3i-b event message from the forwarder or skidder HMI telling it's digital twin that the forwarding order is completed.",
	"required": ["sender", "identifier", "messageType", "topic", "timestamp", "content"],
	"properties": {
		"sender": {
			"type": "string",
			"description": "s3i id of the forwarder driver's or skidder driver's app"
		},
		"identifier": {
			"type": "string",
			"description": "id of the message"
		},
		"messageType": {
			"const": "eventMessage"
		},
		"topic": {
            "type": "string",
			"description": "s3i:<forwarder_id>.forwardingDone"
		},
		"timestamp": {
			"type": "number",
			"description": "timestamp since epoch in sec"
		},
		"content":{
			"type": "object",
			"required": ["orderId"],
			"properties": {
				"orderId": {
					"type": "string"
				}
			}
		}
	}
}
