{
	"$schema": "http://json-schema.org/draft-07/schema#",
	"type": "object",
	"description": "an s3i-b event message notifying the other participants of the production team that a stem segment was picked up",
	"required": ["sender", "identifier", "messageType", "topic", "timestamp", "content"],
	"properties": {
		"sender": {
			"type": "string",
			"description": "s3i id of the forwarder or skidder"
		},
		"identifier": {
			"type": "string",
			"description": "id of the message"
		},
		"messageType": {
			"const": "eventMessage"
		},
		"topic": {
			"const": "fml40:newStemSegment"
		},
		"timestamp": {
			"type": "number",
			"description": "timestamp since epoch in sec"
		},
		"content":{
			"type": "object",
			"required": ["stemSegmentId"],
			"properties": {
				"stemSegmentId": {
					"type": "string"
				}
            }
        }
    }
}
