{
	"$schema": "http://json-schema.org/draft-07/schema#",
	"type": "object",
	"description": "a s3i-b service reply from production team after accepting production order",
	"properties": {
		"sender": {
			"type": "string",
			"description": "s3i id of production team"
		},
		"receivers": {
			"type": "array",
			"item": {
				"type": "string",
				"description": "s3i id of forest owner",
				"const": "s3i:d698ae55-7a5f-4cc2-94b0-940c7479df23"
			}
		},
		"identifier": {
			"type": "string",
			"description": "id of the message"
		},
		"messageType": {
			"const": "serviceReply"
		},
		"serviceType": {
			"const": "fml40::AcceptsProductionOrders/accept"
		},
		"replyingToMessage": {
			"type": "string",
			"description": "identifier of the previous service request"
		},
		"results": {
            "type": "object",
			"required": ["orderId", "error"],
            "properties": {
                "orderId": {
                    "type": "array",
					"items": {
						"type": "string"
					}
                },
                "error": {
					"type": "object",
					"properties": {
						"errorCode": {
							"type": "integer",
							"description": "0 - ok, 1 - error"
						},
						"errorMsg": {
							"type": "string"
						}
					}
				}
            }
        }
	}
}