{
   "$schema":"http://json-schema.org/draft-07/schema#",
   "type":"object",
   "description":"a s3i-b service request to retrive the production data",
   "properties":{
      "sender":{
         "type":"string",
         "description":"s3i id of forest owner"
      },
      "receivers":{
         "type":"array",
         "item":{
            "type":"string",
            "description":"s3i id of receiver"
         }
      },
      "identifier":{
         "type":"string",
         "description":"id of the message"
      },
      "messageType":{
         "const":"serviceRequest"
      },
      "serviceType":{
         "const":"fml40::ProvidesProductionData/provide"
      },
      "replyToEndpoint":{
         "type":"string",
         "description":"s3i-b endpoint of forest owner"
      },
      "parameters":{
         "type":"object",
         "properties":{
            "orderDetails":{
               "type":"array",
               "items":{
                  "type":"object",
                  "required":[
                     "orderDetailId",
                     "date"
                  ],
                  "properties":{
                     "orderDetailId":{
                        "type":"string"
                     },
                     "date":{
                        "type":"string",
                        "description":"date in YYYY-MM-DD format, e.g., 2024-05-24",
                        "pattern":"[0-9]{4}-[0-9]{2}-[0-9]{2}"
                     }
                  }
               }
            }
         }
      }
   }
}