{
	"$schema": "http://json-schema.org/draft-07/schema#",
	"type": "object",
	"description": "a s3i-b service reply to the request regarding updating timber coordination in an existing production order",
	"properties": {
		"sender": {
			"type": "string",
			"description": "s3i id of forest owner"
		},
		"receivers": {
			"type": "array",
			"item": {
				"type": "string",
				"description": "s3i id of receiver"
			}
		},
		"identifier": {
			"type": "string",
			"description": "id of the message"
		},
		"messageType": {
			"const": "serviceRequest"
		},
		"serviceType": {
			"const": "fml40::AcceptsProductionOrders/updatesTimberCoordination"
		},
		"replyingToMessage": {
			"type": "string",
			"description": "identifier of the previous message"
		},
		"results": {
			"type": "object",
			"required": ["error", "orderId"],
			"properties": {
                "error": {
					"type": "object",
					"errorCode": {"type": "number", "description": "0-ok, 1-error"},
					"errorMsg": {"type": "string"}
				},
                "orderId": {
                    "type": "string",
                    "description": "identifier of the order"
                }
			}
		}
	}
}