{
	"$schema": "http://json-schema.org/draft-07/schema#",
	"type": "object",
	"description": "a s3i-b service request to update timber harvesting volume in an existing production order",
	"properties": {
		"sender": {
			"type": "string",
			"description": "s3i id of forest owner"
		},
		"receivers": {
			"type": "array",
			"item": {
				"type": "string",
				"description": "s3i id of receiver"
			}
		},
		"identifier": {
			"type": "string",
			"description": "id of the message"
		},
		"messageType": {
			"const": "serviceRequest"
		},
		"serviceType": {
			"const": "fml40::AcceptsProductionOrders/updatesTimberHarvestingVolume"
		},
		"replyToEndpoint": {
			"type": "string",
			"description": "s3i-b endpoint of the forest owner"
		},
		"parameters": {
			"type": "object",
			"properties": {
                "timberHarvestingVolume": {
                    "type": "number"
                },
                "orderDetailId": {
                    "type": "string",
                    "description": "identifier of the order detail"
                }
			}
		}
	}
}