@startuml

skin rose
title Chainsaw

object ":Thing" as thing
object ":Thing" as air_sensor_thing
object ":Thing" as engine_thing
object ":Thing" as tree_thing
object ":Thing" as forest_worker_thing
object ":Thing" as stem_segment_thing
object ":Thing" as chainsaw_operator_thing
object ":Thing" as temperature_sensor_thing
object ":Thing" as pressure_sensor_thing

object ":Chainsaw" as chainsaw_role
object ":AirSensor" as air_sensor_role
object ":Engine" as engine_role
object ":Tree" as tree_role
object ":ForestWorker" as forest_worker_role
object ":StemSegment" as stem_segment_role
object ":ChainsawOperator" as chainsaw_operator_role
object ":TemperatureSensor" as temperature_sensor_role
object ":PressureSensor" as pressure_sensor_role

object ":Fuel" as fuel_feature {
    type: ""
}
object ":Description" as description_feature {
    value: ""
}
object ":Brand" as brand_feature{
    name: ""
}
object ":SerialNumber" as serial_number_feature {
    value: ""
}
object ":MaintenanceRemainingHours" as maintenance_remaining_hours_feature {
    hours: 0
}
object ":Model" as model_feature {
    value: ""
}
object ":ManufacturingYear" as manufacturing_year_feature {
    year: 0
}
object ":MachineOperatingStatus" as machine_operating_status_feature {
    status: "InOperation"
}
object ":PurchaseCost" as purchase_cost_feature {
    cost: 0
}
object ":OperatingHours" as operating_hours_feature {
    current: 0
    total: 0
}
object ":FuelConsumption" as fuel_consumption_feature {
    currentConsumption: 0
    meanConsumption: 0
}
object ":Location" as location_feature {
    longitude: 0
    latitude: 0
}
object ":IMUQuaternion" as IMU_quaternion_feature {
    x: 0
    y: 0
    z: 0
    w: 0
}
object ":Acceleration" as acceleration_feature{
    x: 0
    y: 0
    z: 0
}
object ":JobList" as job_list_feature
object ":SawingSetupTime" as sawing_setup_time_feature{
    time: 0
}
object ":SawingProcessingTime" as sawing_processing_time_feature {
    remainingTime: 0
}
object ":SawingProcessingStep" as sawing_processing_step_feature {
    currentStep: ""
}
object "IdlingOperatingHours" as idling_operating_hours_feature{
    total: 0
}
object ":Time" as time_feature {
    time: 0
}


object ":FellingJob" as job_list_felling_job_sub_feature{
    identifier: ""
    status: ""
}

object ":AirVolume" as air_sensor_air_volume_feature {
    volume: 0
}

object ":RotationalSpeed" as engine_rotational_speed_feature {
    rpm: 0
}
object ":Temperature" as engine_temperature_feature {
    temperature: 0
}
object ":Temperature" as temperature_sensor_temperature_feature {
    temperature: 0
}
object ":Pressure" as pressure_sensor_pressure_feature {
    pressure: 0
}

object ":Composite" as composite_feature


object ":ProvidesEmissionData" as provides_emission_data_func
object ":PredictsMaintenance" as predicts_maintenance_func
object ":AcceptsFellingJobs" as accepts_felling_jobs_func
object ":Cuts" as cuts_func
object ":ProvidesMachineData" as provides_machine_data_func
object ":ProvidesStemSegmentData" as provides_stem_segment_data

object ":Shared" as shared_feature

thing -right- chainsaw_role: roles

thing -down- fuel_feature: features
thing -down- description_feature: features
thing -down- brand_feature: features
thing -down- serial_number_feature: features
thing -down- maintenance_remaining_hours_feature: features
thing -down- model_feature: features
thing -down- manufacturing_year_feature: features
thing -down- machine_operating_status_feature: features
thing -down- purchase_cost_feature: features
thing -down- operating_hours_feature: features
thing -down- fuel_consumption_feature: features
thing -down- location_feature: features
thing -down- IMU_quaternion_feature: features
thing -down- acceleration_feature: features
thing -down- sawing_setup_time_feature: features
thing -down- sawing_processing_time_feature: features
thing -down- sawing_processing_step_feature: features
thing -down- idling_operating_hours_feature: features
thing -down- time_feature: features

thing -down- provides_emission_data_func: features
thing -down- predicts_maintenance_func: features
thing -down- accepts_felling_jobs_func: features
thing -down- cuts_func: features
thing -down- provides_machine_data_func: features
thing -down- provides_stem_segment_data: features
thing -down- job_list_feature: features
thing -down- composite_feature: features
thing -down- shared_feature: features

job_list_feature -down- job_list_felling_job_sub_feature: subFeatures

composite_feature -down- air_sensor_thing: targets
composite_feature -down- engine_thing: targets

shared_feature -down- tree_thing: targets
shared_feature -down- forest_worker_thing: targets
shared_feature -down- stem_segment_thing: targets
shared_feature -down- chainsaw_operator_thing: targets
shared_feature -down- temperature_sensor_thing: targets
shared_feature -down- pressure_sensor_thing: targets


air_sensor_thing -right- air_sensor_role: roles
engine_thing -right- engine_role: roles
tree_thing -right- tree_role: roles
forest_worker_thing -right- forest_worker_role: roles
stem_segment_thing -right- stem_segment_role: roles
chainsaw_operator_thing -right- chainsaw_operator_role: roles
temperature_sensor_thing -right- temperature_sensor_role: roles
pressure_sensor_thing -right- pressure_sensor_role: roles

air_sensor_thing -down- air_sensor_air_volume_feature: features

engine_thing -down- engine_rotational_speed_feature: features
engine_thing -down- engine_temperature_feature: features

temperature_sensor_thing -down- temperature_sensor_temperature_feature: features

pressure_sensor_thing -down- pressure_sensor_pressure_feature: features
@enduml
