@startuml
skin rose
title Laboratory

object ":Thing" as thing
object ":Laboratory" as laboratory_role
object ":AcceptsMoistureMeasurement" as accept_moisture_measurement_feature

thing -right- laboratory_role: roles
thing -down- accept_moisture_measurement_feature: features
@enduml
