@startuml 

skin rose
title Mill Gate

object ":Thing" as thing1 
object ":Thing" as thing2 
object ":Thing" as thing3 
object ":Thing" as thing4 
object ":Thing" as thing5 

object ":MillGate" as mill_gate_role
object ":LogTruckScale" as log_truck_scale_role
object ":VehicleCounterSensor" as vehicle_counter_sensor_role
object ":WoodYard" as wood_yard_role
object ":Laboratory" as laboratory_role

object ":OrganizationalContact" as organizational_contact_feature {
   name: "Biochemicals Leuna"
   street: "Tor 6 - Bau 4400"
   city: "Leuna"
   zip: "06237"
}

object ":AllowsWoodDeliveryTimePeriod" as allows_wood_delivery_time_period_feature {
    start: 0 
    end: 0
}
object ":OpeningHours" as opening_hours_feature {
    start: 0
    end: 0
}
object ":MillEntryParkingAreaStatus" as mill_entry_parking_area_status_feature {
    status: ""
}
object ":MillDeliveryParkingAreaStatus" as mill_delivery_parking_area_status_feature {
    status: ""
}
object ":Composite" as composite_feature
object ":PredictsConsumption" as predicts_consumption_func
object ":ControlsSawmillProduction" as control_sawmill_production_func
object ":AcceptLogLoadingUnit" as accept_log_loading_unit_func
object ":Shared" as shared_feature 

thing1 -right- mill_gate_role: roles
thing1 -down- allows_wood_delivery_time_period_feature: features
thing1 -down- opening_hours_feature: features
thing1 -down- mill_entry_parking_area_status_feature: features
thing1 -down- mill_delivery_parking_area_status_feature: features
thing1 -down- predicts_consumption_func: features
thing1 -down- composite_feature: features 
thing1 -down- control_sawmill_production_func: features
thing1 -down- shared_feature: features
thing1 -down- accept_log_loading_unit_func: features

composite_feature -down- thing2: targets
shared_feature -down- thing3: targets
shared_feature -down- thing4: targets
shared_feature -down- thing5: targets

thing2 -right- vehicle_counter_sensor_role: roles
thing3 -right- wood_yard_role: roles
thing4 -right- log_truck_scale_role: roles
thing5 -right- laboratory_role: roles

@enduml