@startuml
skin rose
title truck

object ":Thing" as thing
object ":Thing" as forest_road_thing

object ":LogTruck" as log_truck_role
object ":ForestRoad" as forest_road_role

object ":ClimbingAbility" as climbing_ability_feature {
    value: 0
}
object ":location" as location_feature {
    longitude: 0
    latitude: 0
}
object ":CurrentLoad" as current_load_feature {
    load: 0
}
object ":MotorVehicleLicensePlateNumber" as motor_vehicle_license_plate_number_feature {
    value: ""
}
object ":JobList" as job_list_feature

object ":LogTransportationJob" as job_list_log_transportation_job_sub_feature

object ":GeneratesLogLoadingUnit" as generates_log_loading_unit_func
object ":RemovesLogLoadingUnit" as removes_log_loading_unit_func
object ":Shared" as shared_feature
object ":GeneratesLogLoadingNote" as generates_log_loading_note_func
object ":AcceptsLogTransportationJobs" as accepts_log_transportation_jobs

thing -right- log_truck_role: roles

thing -down- climbing_ability_feature: features
thing -down- location_feature: features
thing -down- current_load_feature: features
thing -down- motor_vehicle_license_plate_number_feature: features
thing -down- job_list_feature: features
thing -down- generates_log_loading_unit_func: features
thing -down- removes_log_loading_unit_func: features
thing -down- shared_feature: features
thing -down- generates_log_loading_note_func: features
thing -down- accepts_log_transportation_jobs: features

job_list_feature -down- job_list_log_transportation_job_sub_feature: subFeatures

shared_feature -down- forest_road_thing: targets

forest_road_thing -right- forest_road_role: roles
@enduml
