@startuml

skin rose
title Wood Yard

object ":Thing" as thing
object ":Thing" as box_thing_1
object ":Thing" as box_thing_2
object ":Thing" as mill_gate_thing
object ":Thing" as forest_owner_thing

object ":WoodYard" as wood_yard_role
object ":LogStorageBox" as log_storage_box_role_1
object ":LogStrorageBox" as log_storage_box_role_2
object ":MillGate" as mill_gate_role
object ":ForestOwner" as forest_owner_role

object ":Shared" as shared_feature
object ":Composite" as composite_feature
object ":AcceptsLogLoadingUnitInWoodYard" as accept_log_loading_unit_in_wood_yard_feature
object ":Assortment" as assortment_feature_1 {
    grade: ""
    name": ""
}
object ":Assortment" as assortment_feature_2 {
    grade: ""
    name: ""
}
object ":LoadingVolume" as loading_volume_feature_1 {
    currentVolume: 0
    maxVolume: 0
    minVolume: 0
}
object ":LoadingVolume" as loading_volume_feature_2 {
    currentVolume: 0
    maxVolume: 0
    minVolume: 0
}
object ":TreeType" as tree_type_feature_1 {
    name: ""
    conifer: ""
}
object ":ThicknessClass" as thickness_class_1 {
    name": ""
}
object ":WoodQuality" as wood_quality_1 {
    name: ""
}
object ":HarvestingParameters" as harvesting_parameters_1 {
    cuttingLengths: 0
}

object ":TreeType" as tree_type_feature_2 {
    name: ""
    conifer: ""
}
object ":ThicknessClass" as thickness_class_2 {
    name": ""
}
object ":WoodQuality" as wood_quality_2 {
    name: ""
}
object ":HarvestingParameters" as harvesting_parameters_2 {
    cuttingLengths: 0
}

object ":Location" as location_1 {
    longitude: 0
    latitude: 0
}

object ":Location" as location_2 {
    longitude: 0
    latitude: 0
}

object ":LogForecastVolume" as log_forecast_volume_1 {
    value: 0
}

object ":LogForecastVolume" as log_forecast_volume_2 {
    value: 0
}


thing -right- wood_yard_role: roles
thing -down- shared_feature: features
thing -down- composite_feature: features
thing -down- accept_log_loading_unit_in_wood_yard_feature: features

composite_feature -down- box_thing_1: targets
composite_feature -down- box_thing_2: targets

box_thing_1 -right- log_storage_box_role_1: roles
box_thing_1 -down- assortment_feature_1: features
box_thing_1 -down- loading_volume_feature_1: features
box_thing_1 -down- location_1: features
box_thing_1 -down- log_forecast_volume_1: features

box_thing_2 -right- log_storage_box_role_2: roles
box_thing_2 -down- assortment_feature_2: features
box_thing_2 -down- loading_volume_feature_2:features
box_thing_2 -down- location_2: features
box_thing_2 -down- log_forecast_volume_2: features

assortment_feature_1 -down- tree_type_feature_1: subFeastures
assortment_feature_1 -down- thickness_class_1: subFeastures
assortment_feature_1 -down- wood_quality_1: subFeastures
assortment_feature_1 -down- harvesting_parameters_1: subFeastures

assortment_feature_2 -down- tree_type_feature_2: subFeastures
assortment_feature_2 -down- thickness_class_2: subFeastures
assortment_feature_2 -down- wood_quality_2: subFeastures
assortment_feature_2 -down- harvesting_parameters_2: subFeastures

shared_feature -down- mill_gate_thing: targets
shared_feature -down- forest_owner_thing: targets
mill_gate_thing -right- mill_gate_role: roles
forest_owner_thing -right- forest_owner_role: roles
@enduml

