{
  "$schema": "http://json-schema.org/draft-07/schema#",
	"type": "object",
	"description": "This is a json schema for a S3I-B service request to send log loading unit to be accepted by mill gate",
	"properties": {
		"sender": {
			"const": "s3i:4f4238f4-d4e1-4d5d-bd1b-c40eade1c91e",
			"description": "s3i id of the truck app"
		},
		"receivers": {
			"type": "array",
			"item": {
				"const": "s3i:213f92f1-f6aa-4597-88d1-75bf8adba7df",
				"description": "s3i ID of the mill gate"
			}
		},
		"identifier": {
			"type": "string",
			"description": "id of the message"
		},
		"messageType": {
			"const": "serviceRequest"
		},
		"serviceType": {
			"const": "fml40::AcceptsLogLoadingUnit/accept"
		},
		"replyToEndpoint": {
			"const": "s3ibs://s3i:4f4238f4-d4e1-4d5d-bd1b-c40eade1c91e",
			"description": "S3I-B endpoint of the truck app"
		},
        "parameters": {
            "type": "object",
            "properties": {
              "logLoadingUnit": {
				  "type": "object",
				  "description": "see https://git.rwth-aachen.de/kwh40/fml40-reference-implementation/-/blob/add_smart_forestry_features/dt_templates/template_json/log_loading_unit.json"
              }
            }
        }
    }
}