{
	"$schema": "http://json-schema.org/draft-07/schema#",
	"type": "object",
	"description": "a s3i-b event message to confirm delivery",
	"properties": {
		"sender": {
			"type": "string",
			"description": "s3i id of mill gate"
		},
		"identifier": {
			"type": "string",
			"description": "id of the message"
		},
		"messageType": {
			"const": "eventMessage"
		},
		"topic": {
			"const": "s3i:213f92f1-f6aa-4597-88d1-75bf8adba7df.transportationConfirmation"
		},
		"timestamp": {
			"type": "number",
			"description": "timestamp since epoch in sec"
		},
		"content":{
			"type": "object",
			"properties": {
				"transportOrderId": {
					"type": "string"
				},
				"contractNumber": {
					"type": "string"
				},
				"atro": {
					"type": "number"
				},
				"lutro": {
					"type": "number"
				}
			}
        }
    }
}