{
  "$schema": "http://json-schema.org/draft-07/schema#",
	"type": "object",
	"description": "This is a json schema for a S3I-B service request to generate log loading unit",
	"properties": {
		"sender": {
			"const": "s3i:4f4238f4-d4e1-4d5d-bd1b-c40eade1c91e",
			"description": "s3i id of truck app"
		},
		"receivers": {
			"type": "array",
			"item": {
				"const": "s3i:f58e10c0-1e9d-4901-89b0-98165b4f67fc",
				"description": "s3i id of the truck"
			}
		},
		"identifier": {
			"type": "string",
			"description": "id of the message"
		},
		"messageType": {
			"const": "serviceRequest"
		},
		"serviceType": {
			"const": "fml40::GeneratesLogLoadingUnit/generate"
		},
		"replyToEndpoint": {
			"const": "s3ibs://s3i:4f4238f4-d4e1-4d5d-bd1b-c40eade1c91e",
			"description": "s3i endpoint of the truck app"
		},
        "parameters": {
            "type": "object",
			"properties": {
				"woodPileIdentifiers": {
					"type": "array",
					"items": {
						"type": "string",
						"description": "s3i id of wood piles"
					}
				},
				"contractNumber": {
					"type": "string"
				},
				"referenceNumber": {
					"type": "string"
				}
			}
        }
    }
}