{
  "$schema": "http://json-schema.org/draft-07/schema#",
	"type": "object",
	"description": "This is a json schema for a S3I-B event to notificate that a transport order is finished",
	"properties": {
		"sender": {
            "const": "s3i:4f4238f4-d4e1-4d5d-bd1b-c40eade1c91e",
			"description": "s3i id of the truck app"
		},
		"identifier": {
			"type": "string",
			"description": "id of the message"
		},
		"messageType": {
			"const": "eventMessage"
		},
		"topic": {
			"const": "s3i:4f4238f4-d4e1-4d5d-bd1b-c40eade1c91e.transportOrderClosed"
		},
		"timestamp": {
			"type": "string"
		},
        "content": {
            "type": "object",
			"required": ["transportOrderId"],
			"properties": {
				"transportOrderId": {
					"type": "string"
				}
			}
        }
    }
}